EESchema Schematic File Version 2
LIBS:power
LIBS:device
LIBS:transistors
LIBS:conn
LIBS:linear
LIBS:regul
LIBS:74xx
LIBS:cmos4000
LIBS:adc-dac
LIBS:memory
LIBS:xilinx
LIBS:microcontrollers
LIBS:dsp
LIBS:microchip
LIBS:analog_switches
LIBS:motorola
LIBS:texas
LIBS:intel
LIBS:audio
LIBS:interface
LIBS:digital-audio
LIBS:philips
LIBS:display
LIBS:cypress
LIBS:siliconi
LIBS:opto
LIBS:atmel
LIBS:contrib
LIBS:valves
LIBS:my-ICs
LIBS:my-misc-modules
LIBS:my-microcontrollers
LIBS:my-regulators
LIBS:mysensors-remote-cache
EELAYER 25 0
EELAYER END
$Descr A4 11693 8268
encoding utf-8
Sheet 1 1
Title ""
Date ""
Rev ""
Comp ""
Comment1 ""
Comment2 ""
Comment3 ""
Comment4 ""
$EndDescr
$Comp
L NRF24L01 U4
U 1 1 59907F10
P 6750 2450
F 0 "U4" H 6900 2150 60  0000 C CNN
F 1 "NRF24L01" H 7000 2000 60  0000 C CNN
F 2 "myModules:NRF24L01" H 6750 2450 60  0001 C CNN
F 3 "" H 6750 2450 60  0000 C CNN
	1    6750 2450
	1    0    0    -1  
$EndComp
$Comp
L arduino_mini U1
U 1 1 5992F159
P 3850 2850
F 0 "U1" H 3875 3400 70  0000 C CNN
F 1 "arduino_mini" H 3875 3150 70  0000 C CNN
F 2 "myMicroControllers:Arduino-mini" H 3850 3950 60  0001 C CNN
F 3 "" H 4175 2350 60  0000 C CNN
	1    3850 2850
	-1   0    0    1   
$EndComp
$Comp
L MCP23008 U2
U 1 1 5A8C892E
P 4950 4950
F 0 "U2" H 4950 4800 50  0000 C CNN
F 1 "MCP23008" H 4950 5250 50  0000 C CNN
F 2 "Housings_DIP:DIP-18_W7.62mm_LongPads" H 4950 4950 60  0001 C CNN
F 3 "" H 4950 4950 60  0000 C CNN
	1    4950 4950
	1    0    0    -1  
$EndComp
$Comp
L VSS #PWR01
U 1 1 5A8C8DD9
P 5600 4850
F 0 "#PWR01" H 5600 4700 50  0001 C CNN
F 1 "VSS" H 5600 5000 50  0000 C CNN
F 2 "" H 5600 4850 50  0000 C CNN
F 3 "" H 5600 4850 50  0000 C CNN
	1    5600 4850
	-1   0    0    1   
$EndComp
$Comp
L VSS #PWR02
U 1 1 5ACA29EB
P 2300 3600
F 0 "#PWR02" H 2300 3450 50  0001 C CNN
F 1 "VSS" H 2300 3750 50  0000 C CNN
F 2 "" H 2300 3600 50  0000 C CNN
F 3 "" H 2300 3600 50  0000 C CNN
	1    2300 3600
	-1   0    0    1   
$EndComp
$Comp
L VDD #PWR03
U 1 1 5ACA2B9D
P 6750 1800
F 0 "#PWR03" H 6750 1650 50  0001 C CNN
F 1 "VDD" H 6750 1950 50  0000 C CNN
F 2 "" H 6750 1800 50  0000 C CNN
F 3 "" H 6750 1800 50  0000 C CNN
	1    6750 1800
	1    0    0    -1  
$EndComp
$Comp
L VDD #PWR04
U 1 1 5ACA2CEA
P 2700 2850
F 0 "#PWR04" H 2700 2700 50  0001 C CNN
F 1 "VDD" H 2700 3000 50  0000 C CNN
F 2 "" H 2700 2850 50  0000 C CNN
F 3 "" H 2700 2850 50  0000 C CNN
	1    2700 2850
	1    0    0    -1  
$EndComp
$Comp
L VSS #PWR05
U 1 1 5ACA319A
P 6750 3100
F 0 "#PWR05" H 6750 2950 50  0001 C CNN
F 1 "VSS" H 6750 3250 50  0000 C CNN
F 2 "" H 6750 3100 50  0000 C CNN
F 3 "" H 6750 3100 50  0000 C CNN
	1    6750 3100
	-1   0    0    1   
$EndComp
$Comp
L VDD #PWR06
U 1 1 5D121D4B
P 5050 3850
F 0 "#PWR06" H 5050 3700 50  0001 C CNN
F 1 "VDD" H 5050 4000 50  0000 C CNN
F 2 "" H 5050 3850 50  0000 C CNN
F 3 "" H 5050 3850 50  0000 C CNN
	1    5050 3850
	1    0    0    -1  
$EndComp
$Comp
L CP C1
U 1 1 5D12267E
P 9800 4650
F 0 "C1" H 9825 4750 50  0000 L CNN
F 1 "10µF 6.3V" H 9825 4550 50  0000 L CNN
F 2 "Capacitors_ThroughHole:C_Radial_D5_L11_P2" H 9838 4500 50  0001 C CNN
F 3 "" H 9800 4650 50  0000 C CNN
	1    9800 4650
	1    0    0    -1  
$EndComp
$Comp
L Jumper_NC_Small JP1
U 1 1 5D122697
P 7950 4400
F 0 "JP1" H 7950 4480 50  0000 C CNN
F 1 "SLEEP-CURRENT" H 7960 4340 50  0000 C CNN
F 2 "Pin_Headers:Pin_Header_Straight_1x02" H 7950 4400 50  0001 C CNN
F 3 "" H 7950 4400 50  0000 C CNN
	1    7950 4400
	1    0    0    -1  
$EndComp
$Comp
L Battery BT1
U 1 1 5D12269E
P 8050 4750
F 0 "BT1" V 7900 4700 50  0000 L CNN
F 1 "16340 LI-ION" V 8250 4450 50  0000 L CNN
F 2 "myBatteries:16340" V 8050 4790 50  0001 C CNN
F 3 "" V 8050 4790 50  0000 C CNN
	1    8050 4750
	0    1    1    0   
$EndComp
$Comp
L +BATT #PWR07
U 1 1 5D1226A6
P 8200 4300
F 0 "#PWR07" H 8200 4150 50  0001 C CNN
F 1 "+BATT" H 8200 4440 50  0000 C CNN
F 2 "" H 8200 4300 50  0000 C CNN
F 3 "" H 8200 4300 50  0000 C CNN
	1    8200 4300
	1    0    0    -1  
$EndComp
$Comp
L TP4056-MODULE U3
U 1 1 5D1226AE
P 7150 4650
F 0 "U3" H 7050 4550 60  0000 C CNN
F 1 "TP4056-MODULE" H 7000 4650 60  0000 C CNN
F 2 "myModules:TP4056-CHARGER" H 7150 4650 60  0001 C CNN
F 3 "" H 7150 4650 60  0000 C CNN
	1    7150 4650
	1    0    0    -1  
$EndComp
$Comp
L VSS #PWR08
U 1 1 5D122E93
P 9800 5000
F 0 "#PWR08" H 9800 4850 50  0001 C CNN
F 1 "VSS" H 9800 5150 50  0000 C CNN
F 2 "" H 9800 5000 50  0000 C CNN
F 3 "" H 9800 5000 50  0000 C CNN
	1    9800 5000
	-1   0    0    1   
$EndComp
$Comp
L VDD #PWR09
U 1 1 5D122EE6
P 9800 4300
F 0 "#PWR09" H 9800 4150 50  0001 C CNN
F 1 "VDD" H 9800 4450 50  0000 C CNN
F 2 "" H 9800 4300 50  0000 C CNN
F 3 "" H 9800 4300 50  0000 C CNN
	1    9800 4300
	1    0    0    -1  
$EndComp
$Comp
L R R1
U 1 1 5D12334C
P 2300 2250
F 0 "R1" V 2380 2250 50  0000 C CNN
F 1 "1M" V 2300 2250 50  0000 C CNN
F 2 "Resistors_ThroughHole:Resistor_Horizontal_RM10mm" V 2230 2250 50  0001 C CNN
F 3 "" H 2300 2250 50  0000 C CNN
	1    2300 2250
	-1   0    0    1   
$EndComp
$Comp
L R R2
U 1 1 5D123353
P 2300 2850
F 0 "R2" V 2380 2850 50  0000 C CNN
F 1 "330K" V 2300 2850 50  0000 C CNN
F 2 "Resistors_ThroughHole:Resistor_Horizontal_RM10mm" V 2230 2850 50  0001 C CNN
F 3 "" H 2300 2850 50  0000 C CNN
	1    2300 2850
	-1   0    0    1   
$EndComp
$Comp
L +BATT #PWR010
U 1 1 5D12335D
P 2300 2000
F 0 "#PWR010" H 2300 1850 50  0001 C CNN
F 1 "+BATT" H 2300 2140 50  0000 C CNN
F 2 "" H 2300 2000 50  0000 C CNN
F 3 "" H 2300 2000 50  0000 C CNN
	1    2300 2000
	1    0    0    -1  
$EndComp
$Comp
L VSS #PWR011
U 1 1 5D12455D
P 7500 2500
F 0 "#PWR011" H 7500 2350 50  0001 C CNN
F 1 "VSS" H 7500 2650 50  0000 C CNN
F 2 "" H 7500 2500 50  0000 C CNN
F 3 "" H 7500 2500 50  0000 C CNN
	1    7500 2500
	-1   0    0    1   
$EndComp
$Comp
L C C2
U 1 1 5D1244E9
P 7500 2250
F 0 "C2" H 7525 2350 50  0000 L CNN
F 1 "100nF" H 7525 2150 50  0000 L CNN
F 2 "Capacitors_ThroughHole:C_Rect_L7_W2_P5" H 7538 2100 50  0001 C CNN
F 3 "" H 7500 2250 50  0000 C CNN
	1    7500 2250
	1    0    0    -1  
$EndComp
$Comp
L C C3
U 1 1 5D124D6D
P 2500 3200
F 0 "C3" H 2400 3300 50  0000 L CNN
F 1 "100nF" H 2525 3100 50  0000 L CNN
F 2 "Capacitors_ThroughHole:C_Rect_L7_W2_P5" H 2538 3050 50  0001 C CNN
F 3 "" H 2500 3200 50  0000 C CNN
	1    2500 3200
	1    0    0    -1  
$EndComp
$Comp
L C C4
U 1 1 5D1257AC
P 5600 4200
F 0 "C4" H 5500 4300 50  0000 L CNN
F 1 "100nF" H 5350 4100 50  0000 L CNN
F 2 "Capacitors_ThroughHole:C_Rect_L7_W2_P5" H 5638 4050 50  0001 C CNN
F 3 "" H 5600 4200 50  0000 C CNN
	1    5600 4200
	1    0    0    -1  
$EndComp
$Comp
L HT7533-1 U5
U 1 1 5D1263EA
P 9250 4450
F 0 "U5" H 9400 4400 50  0000 C CNN
F 1 "HT7533-1" H 9250 4650 50  0000 C CNN
F 2 "TO_SOT_Packages_THT:TO-92_Inline_Wide" H 9250 4550 50  0001 C CIN
F 3 "" H 9250 4450 50  0000 C CNN
	1    9250 4450
	1    0    0    -1  
$EndComp
$Comp
L CP C5
U 1 1 5D12678B
P 8700 4650
F 0 "C5" H 8725 4750 50  0000 L CNN
F 1 "10µF 6.3V" H 8725 4550 50  0000 L CNN
F 2 "Capacitors_ThroughHole:C_Radial_D5_L11_P2" H 8738 4500 50  0001 C CNN
F 3 "" H 8700 4650 50  0000 C CNN
	1    8700 4650
	1    0    0    -1  
$EndComp
$Comp
L VSS #PWR012
U 1 1 5D161D76
P 4300 5400
F 0 "#PWR012" H 4300 5250 50  0001 C CNN
F 1 "VSS" H 4300 5550 50  0000 C CNN
F 2 "" H 4300 5400 50  0000 C CNN
F 3 "" H 4300 5400 50  0000 C CNN
	1    4300 5400
	-1   0    0    1   
$EndComp
$Comp
L CONN_01X09 P1
U 1 1 5D163DCF
P 4000 4900
F 0 "P1" H 4000 5400 50  0000 C CNN
F 1 "KEYBOARD" V 4100 4900 50  0000 C CNN
F 2 "Pin_Headers:Pin_Header_Straight_1x09" H 4000 4900 50  0001 C CNN
F 3 "" H 4000 4900 50  0000 C CNN
	1    4000 4900
	-1   0    0    -1  
$EndComp
Wire Wire Line
	7300 3000 4900 3000
Wire Wire Line
	5550 2100 4900 2100
Wire Wire Line
	5550 2250 4900 2250
Wire Wire Line
	6150 1500 2700 1500
Wire Wire Line
	2700 1500 2700 2250
Wire Wire Line
	2700 2250 2850 2250
Wire Wire Line
	7350 1450 2650 1450
Wire Wire Line
	2650 1450 2650 2100
Wire Wire Line
	2650 2100 2850 2100
Wire Wire Line
	6200 1400 2600 1400
Wire Wire Line
	2600 1400 2600 2400
Wire Wire Line
	2600 2400 2850 2400
Wire Wire Line
	4100 1300 5800 1300
Wire Wire Line
	4100 1300 4100 1550
Wire Wire Line
	5750 5700 5750 1250
Wire Wire Line
	5750 1250 3950 1250
Wire Wire Line
	3950 1250 3950 1550
Wire Wire Line
	5500 4750 5850 4750
Wire Wire Line
	5850 4750 5850 2850
Wire Wire Line
	5850 2850 4900 2850
Wire Wire Line
	5600 4350 5600 4850
Wire Wire Line
	5600 4450 5500 4450
Wire Wire Line
	5500 4550 5600 4550
Connection ~ 5600 4550
Wire Wire Line
	5500 4650 5600 4650
Connection ~ 5600 4650
Wire Wire Line
	2300 3000 2300 3600
Wire Wire Line
	2700 3150 2850 3150
Wire Wire Line
	2700 2850 2700 3150
Wire Wire Line
	6750 3100 6750 3000
Wire Wire Line
	6750 1800 6750 1900
Wire Wire Line
	7300 3000 7300 2550
Wire Wire Line
	7300 2550 7200 2550
Wire Wire Line
	6300 2350 5550 2350
Wire Wire Line
	5550 2350 5550 2250
Wire Wire Line
	5550 2100 5550 2000
Wire Wire Line
	5550 2000 7300 2000
Wire Wire Line
	7300 2000 7300 2350
Wire Wire Line
	7300 2350 7200 2350
Wire Wire Line
	7350 1450 7350 2450
Wire Wire Line
	7350 2450 7200 2450
Wire Wire Line
	6150 1500 6150 2550
Wire Wire Line
	6150 2550 6300 2550
Wire Wire Line
	6200 1400 6200 2450
Wire Wire Line
	6200 2450 6300 2450
Wire Wire Line
	5750 5700 5150 5700
Wire Wire Line
	5150 5700 5150 5650
Wire Wire Line
	5050 5650 5050 5750
Wire Wire Line
	5050 5750 5800 5750
Wire Wire Line
	5800 5750 5800 1300
Wire Wire Line
	5050 3850 5050 4050
Wire Wire Line
	7700 4900 9800 4900
Wire Wire Line
	9250 4700 9250 4900
Wire Wire Line
	9800 4800 9800 5000
Wire Wire Line
	9800 4300 9800 4500
Connection ~ 9800 4400
Connection ~ 9250 4900
Connection ~ 9800 4900
Wire Wire Line
	9650 4400 9800 4400
Wire Wire Line
	8200 4300 8200 4400
Wire Wire Line
	8050 4400 8850 4400
Connection ~ 8200 4400
Wire Wire Line
	7700 4750 7900 4750
Wire Wire Line
	8200 4750 8300 4750
Wire Wire Line
	8300 4750 8300 4550
Wire Wire Line
	8300 4550 7700 4550
Wire Wire Line
	2300 2400 2300 2700
Wire Wire Line
	2300 2550 2850 2550
Connection ~ 2300 2550
Wire Wire Line
	2300 2000 2300 2100
Connection ~ 2300 3450
Wire Wire Line
	2300 3450 2850 3450
Wire Wire Line
	6750 1850 7500 1850
Connection ~ 6750 1850
Wire Wire Line
	7500 2400 7500 2500
Wire Wire Line
	7500 1850 7500 2100
Wire Wire Line
	2500 3350 2500 3450
Connection ~ 2500 3450
Wire Wire Line
	2500 3050 2500 2950
Wire Wire Line
	2500 2950 2700 2950
Connection ~ 2700 2950
Wire Wire Line
	5050 3950 5600 3950
Wire Wire Line
	5600 3950 5600 4050
Connection ~ 5050 3950
Connection ~ 5600 4450
Wire Wire Line
	8700 4800 8700 4900
Connection ~ 8700 4900
Wire Wire Line
	8700 4500 8700 4400
Connection ~ 8700 4400
Wire Wire Line
	4200 4800 4400 4800
Wire Wire Line
	4200 4700 4400 4700
Wire Wire Line
	4200 4600 4400 4600
Wire Wire Line
	4200 4500 4400 4500
Wire Wire Line
	4200 5200 4400 5200
Wire Wire Line
	4200 5100 4400 5100
Wire Wire Line
	4200 5000 4400 5000
Wire Wire Line
	4200 4900 4400 4900
Wire Wire Line
	4300 5400 4300 5300
Wire Wire Line
	4300 5300 4200 5300
Wire Wire Line
	7850 4400 7700 4400
$EndSCHEMATC
